Headquarters,CEO Salary,CEO Bonus,Active Countries,People Fed
Canada,"100,000","50,000",1,400
United States,"110,000","60,000",2,"50,000"
Mexico,"150,000","75,000",4,"200,000"
Germany,"160,000","85,000",5,"400,000"
Nigeria,"200,000","95,000",10,"800,000"
China,"220,000","120,000",12,"1,000,000"
Russia,"250,000","135,000",15,"5,000,000"
South Africa,"265,000","150,000",20,"25,000,000"
France,"325,000","200,000",50,"50,000,000"
Russia,"500,000","250,000",75,"120,000,000"